[
    {
        "_id": "b-04",
        "_parentId": "a-05",
        "_type": "block",
        "_classes": "",
        "title": "b-05",
        "displayTitle": "",
        "body": "",
        "_trackingId": 0
    },
    {
        "_id": "b-05",
        "_parentId": "a-05",
        "_type": "block",
        "_classes": "",
        "title": "b-05",
        "displayTitle": "",
        "body": "",
        "_trackingId": 1
    },
    {
        "_id": "b-06",
        "_parentId": "a-05",
        "_type": "block",
        "_classes": "",
        "title": "b-06",
        "displayTitle": "",
        "body": "",
        "_trackingId": 2
    },
    {
        "_id": "b-08",
        "_parentId": "a-05",
        "_type": "block",
        "_classes": "",
        "title": "b-08",
        "displayTitle": "",
        "body": "",
        "_trackingId": 3
    },
    {
        "_id": "b-09",
        "_parentId": "a-10",
        "_type": "block",
        "_classes": "",
        "title": "b-09",
        "displayTitle": "",
        "body": "",
        "_trackingId": 4
    },
    {
        "_id": "b-10",
        "_parentId": "a-10",
        "_type": "block",
        "_classes": "",
        "title": "b-10",
        "displayTitle": "",
        "body": "",
        "_trackingId": 5
    },
    {
        "_id": "b-11",
        "_parentId": "a-10",
        "_type": "block",
        "_classes": "",
        "title": "b-11",
        "displayTitle": "",
        "body": "",
        "_trackingId": 6
    },
    {
        "_id": "b-12",
        "_parentId": "a-10",
        "_type": "block",
        "_classes": "",
        "title": "b-12",
        "displayTitle": "",
        "body": "",
        "_trackingId": 7
    },
    {
        "_id": "b-13",
        "_parentId": "a-10",
        "_type": "block",
        "_classes": "",
        "title": "b-13",
        "displayTitle": "",
        "body": "",
        "_trackingId": 8
    },
    {
        "_id": "b-14",
        "_parentId": "a-10",
        "_type": "block",
        "_classes": "",
        "title": "b-14",
        "displayTitle": "",
        "body": "",
        "_trackingId": 9
    },
    {
        "_id": "b-15",
        "_parentId": "a-15",
        "_type": "block",
        "_classes": "",
        "title": "b-15",
        "displayTitle": "",
        "body": "",
        "_trackingId": 10
    },
    {
        "_id": "b-16",
        "_parentId": "a-15",
        "_type": "block",
        "_classes": "",
        "title": "b-16",
        "displayTitle": "",
        "body": "",
        "_trackingId": 11
    },
    {
        "_id": "b-17",
        "_parentId": "a-15",
        "_type": "block",
        "_classes": "",
        "title": "b-17",
        "displayTitle": "",
        "body": "",
        "_trackingId": 12
    },
    {
        "_id": "b-18",
        "_parentId": "a-15",
        "_type": "block",
        "_classes": "",
        "title": "b-18",
        "displayTitle": "",
        "body": "",
        "_trackingId": 13
    },
    {
        "_id": "b-19",
        "_parentId": "a-15",
        "_type": "block",
        "_classes": "",
        "title": "b-19",
        "displayTitle": "",
        "body": "",
        "_trackingId": 14
    },
    {
        "_id": "b-20",
        "_parentId": "a-15",
        "_type": "block",
        "_classes": "",
        "title": "b-20",
        "displayTitle": "",
        "body": "",
        "_trackingId": 15
    },
    {
        "_id": "b-21",
        "_parentId": "a-15",
        "_type": "block",
        "_classes": "gradient_light_blue",
        "title": "b-21",
        "displayTitle": "",
        "body": "",
        "_trackingId": 16
    },
    {
        "_id": "b-21_a",
        "_parentId": "a-15",
        "_type": "block",
        "_classes": "",
        "title": "b-21_a",
        "displayTitle": "",
        "body": "",
        "_trackingId": 17
    },
    {
        "_id": "b-22",
        "_parentId": "a-20",
        "_type": "block",
        "_classes": "",
        "title": "b-22",
        "displayTitle": "",
        "body": "",
        "_trackingId": 18
    },
    {
        "_id": "b-23",
        "_parentId": "a-20",
        "_type": "block",
        "_classes": "",
        "title": "b-22",
        "displayTitle": "",
        "body": "",
        "_trackingId": 19
    },
    {
        "_id": "b-25",
        "_parentId": "a-20",
        "_type": "block",
        "_classes": "",
        "title": "b-25",
        "displayTitle": "",
        "body": "",
        "_trackingId": 20
    },
    {
        "_id": "b-26",
        "_parentId": "a-20",
        "_type": "block",
        "_classes": "",
        "title": "b-25",
        "displayTitle": "",
        "body": "",
        "_trackingId": 21
    },
    {
        "_id": "b-27",
        "_parentId": "a-20",
        "_type": "block",
        "_classes": "",
        "title": "b-27",
        "displayTitle": "",
        "body": "",
        "_trackingId": 22
    },
    {
        "_id": "b-27_a",
        "_parentId": "a-20",
        "_type": "block",
        "_classes": "",
        "title": "b-27",
        "displayTitle": "",
        "body": "",
        "_trackingId": 23
    },
    {
        "_id": "b-28",
        "_parentId": "a-20",
        "_type": "block",
        "_classes": "",
        "title": "b-28",
        "displayTitle": "",
        "body": "",
        "_trackingId": 24
    },
    {
        "_id": "b-29",
        "_parentId": "a-20",
        "_type": "block",
        "_classes": "",
        "title": "b-29",
        "displayTitle": "",
        "body": "",
        "_trackingId": 25
    },
    {
        "_id": "b-30",
        "_parentId": "a-20",
        "_type": "block",
        "_classes": "",
        "title": "b-30",
        "displayTitle": "",
        "body": "",
        "_trackingId": 26
    },
    {
        "_id": "b-31",
        "_parentId": "a-20",
        "_type": "block",
        "_classes": "",
        "title": "b-31",
        "displayTitle": "",
        "body": "",
        "_trackingId": 27
    },
    {
        "_id": "b-32",
        "_parentId": "a-25",
        "_type": "block",
        "_classes": "",
        "title": "b-32",
        "displayTitle": "",
        "body": "",
        "_trackingId": 28
    },
    {
        "_id": "b-33",
        "_parentId": "a-25",
        "_type": "block",
        "_classes": "",
        "title": "b-34",
        "displayTitle": "",
        "body": "",
        "_trackingId": 29
    },
    {
        "_id": "b-34",
        "_parentId": "a-25",
        "_type": "block",
        "_classes": "",
        "title": "b-34",
        "displayTitle": "",
        "body": "",
        "_trackingId": 30
    },
    {
        "_id": "b-35",
        "_parentId": "a-25",
        "_type": "block",
        "_classes": "",
        "title": "b-35",
        "displayTitle": "",
        "body": "",
        "_trackingId": 31
    },
    {
        "_id": "b-35_a",
        "_parentId": "a-25",
        "_type": "block",
        "_classes": "",
        "title": "b-35",
        "displayTitle": "",
        "body": "",
        "_trackingId": 32
    },
    {
        "_id": "b-39",
        "_parentId": "a-25",
        "_type": "block",
        "_classes": "",
        "title": "b-39",
        "displayTitle": "",
        "body": "",
        "_trackingId": 33
    },
    {
        "_id": "b-40",
        "_parentId": "a-25",
        "_type": "block",
        "_classes": "",
        "title": "b-40",
        "displayTitle": "",
        "body": "",
        "_trackingId": 34
    },
    {
        "_id": "b-41",
        "_parentId": "a-25",
        "_type": "block",
        "_classes": "",
        "title": "b-41",
        "displayTitle": "",
        "body": "",
        "_trackingId": 35
    },
    {
        "_id": "b-42",
        "_parentId": "a-30",
        "_type": "block",
        "_classes": "",
        "title": "b-42",
        "displayTitle": "",
        "body": "",
        "_trackingId": 36
    },
    {
        "_id": "b-43",
        "_parentId": "a-30",
        "_type": "block",
        "_classes": "",
        "title": "b-43",
        "displayTitle": "",
        "body": "",
        "_trackingId": 37
    },
    {
        "_id": "b-44",
        "_parentId": "a-30",
        "_type": "block",
        "_classes": "",
        "title": "b-44",
        "displayTitle": "",
        "body": "",
        "_trackingId": 38
    },
    {
        "_id": "b-45",
        "_parentId": "a-30",
        "_type": "block",
        "_classes": "",
        "title": "b-45",
        "displayTitle": "",
        "body": "",
        "_trackingId": 39
    },
    {
        "_id": "b-46",
        "_parentId": "a-30",
        "_type": "block",
        "_classes": "",
        "title": "b-46",
        "displayTitle": "",
        "body": "",
        "_trackingId": 40
    },
    {
        "_id": "b-47",
        "_parentId": "a-30",
        "_type": "block",
        "_classes": "",
        "title": "b-47",
        "displayTitle": "",
        "body": "",
        "_trackingId": 41
    },
    {
        "_id": "b-48",
        "_parentId": "a-35",
        "_type": "block",
        "_classes": "",
        "title": "b-48",
        "displayTitle": "",
        "body": "",
        "_trackingId": 42
    },
    {
        "_id": "b-49",
        "_parentId": "a-35",
        "_type": "block",
        "_classes": "",
        "title": "b-49",
        "displayTitle": "",
        "body": "",
        "_trackingId": 43
    },
    {
        "_id": "b-50",
        "_parentId": "a-35",
        "_type": "block",
        "_classes": "",
        "title": "b-49",
        "displayTitle": "",
        "body": "",
        "_trackingId": 44
    },
    {
        "_id": "b-54",
        "_parentId": "a-35",
        "_type": "block",
        "_classes": "",
        "title": "b-54",
        "displayTitle": "",
        "body": "",
        "_trackingId": 45
    },
    {
        "_id": "b-57",
        "_parentId": "a-35",
        "_type": "block",
        "_classes": "",
        "title": "b-57",
        "displayTitle": "",
        "body": "",
        "_trackingId": 46
    },
    {
        "_id": "b-58",
        "_parentId": "a-35",
        "_type": "block",
        "_classes": "",
        "title": "b-58",
        "displayTitle": "",
        "body": "",
        "_trackingId": 47
    },
    {
        "_id": "b-59",
        "_parentId": "a-40",
        "_type": "block",
        "_classes": "",
        "title": "b-59",
        "displayTitle": "",
        "body": "",
        "_trackingId": 48
    },
    {
        "_id": "b-60",
        "_parentId": "a-40",
        "_type": "block",
        "_classes": "",
        "title": "b-60",
        "displayTitle": "",
        "body": "",
        "_trackingId": 49
    },
    {
        "_id": "b-61",
        "_parentId": "a-40",
        "_type": "block",
        "_classes": "",
        "title": "b-61",
        "displayTitle": "",
        "body": "",
        "_trackingId": 50
    },
    {
        "_id": "b-63",
        "_parentId": "a-40",
        "_type": "block",
        "_classes": "",
        "title": "b-63",
        "displayTitle": "",
        "body": "",
        "_trackingId": 51
    },
    {
        "_id": "b-65",
        "_parentId": "a-40",
        "_type": "block",
        "_classes": "",
        "title": "b-65",
        "displayTitle": "",
        "body": "",
        "_trackingId": 52
    },
    {
        "_id": "b-66",
        "_parentId": "a-40",
        "_type": "block",
        "_classes": "",
        "title": "b-66",
        "displayTitle": "",
        "body": "",
        "_trackingId": 53
    },
    {
        "_id": "b-67",
        "_parentId": "a-40",
        "_type": "block",
        "_classes": "",
        "title": "b-67",
        "displayTitle": "",
        "body": "",
        "_trackingId": 54
    },
    {
        "_id": "b-69",
        "_parentId": "a-40",
        "_type": "block",
        "_classes": "gradient_dark_blue",
        "title": "b-69",
        "displayTitle": "",
        "body": "",
        "_trackingId": 55
    },
    {
        "_id": "b-70",
        "_parentId": "a-40",
        "_type": "block",
        "_classes": "",
        "title": "b-70",
        "displayTitle": "",
        "body": "",
        "_trackingId": 56
    },
    {
        "_id": "b-71",
        "_parentId": "a-45",
        "_type": "block",
        "_classes": "",
        "title": "b-71",
        "displayTitle": "",
        "body": "",
        "_trackingId": 57
    },
    {
        "_id": "b-72",
        "_parentId": "a-45",
        "_type": "block",
        "_classes": "",
        "title": "b-72",
        "displayTitle": "",
        "body": "",
        "_trackingId": 58
    },
    {
        "_id": "b-73",
        "_parentId": "a-45",
        "_type": "block",
        "_classes": "",
        "title": "b-73",
        "displayTitle": "",
        "body": "",
        "_trackingId": 59
    },
    {
        "_id": "b-76",
        "_parentId": "a-45",
        "_type": "block",
        "_classes": "",
        "title": "b-76",
        "displayTitle": "",
        "body": "",
        "_trackingId": 60
    },
    {
        "_id": "b-77",
        "_parentId": "a-45",
        "_type": "block",
        "_classes": "",
        "title": "b-77",
        "displayTitle": "",
        "body": "",
        "_trackingId": 61
    },
    {
        "_id": "b-78",
        "_parentId": "a-45",
        "_type": "block",
        "_classes": "",
        "title": "b-78",
        "displayTitle": "",
        "body": "",
        "_trackingId": 62
    },
    {
        "_id": "b-79",
        "_parentId": "a-45",
        "_type": "block",
        "_classes": "",
        "title": "b-79",
        "displayTitle": "",
        "body": "",
        "_trackingId": 63
    },
    {
        "_id": "b-80",
        "_parentId": "a-45",
        "_type": "block",
        "_classes": "",
        "title": "b-80",
        "displayTitle": "",
        "body": "",
        "_trackingId": 64
    },
    {
        "_id": "b-81",
        "_parentId": "a-45",
        "_type": "block",
        "_classes": "",
        "title": "b-81",
        "displayTitle": "",
        "body": "",
        "_trackingId": 65
    },
    {
        "_id": "b-82",
        "_parentId": "a-45",
        "_type": "block",
        "_classes": "",
        "title": "b-82",
        "displayTitle": "",
        "body": "",
        "_trackingId": 66
    },
    {
        "_id": "b-83",
        "_parentId": "a-50",
        "_type": "block",
        "_classes": "",
        "title": "b-83",
        "displayTitle": "",
        "body": "",
        "_trackingId": 67
    },
    {
        "_id": "b-84",
        "_parentId": "a-50",
        "_type": "block",
        "_classes": "",
        "title": "b-84",
        "displayTitle": "",
        "body": "",
        "_trackingId": 68
    },
    {
        "_id": "b-85",
        "_parentId": "a-50",
        "_type": "block",
        "_classes": "",
        "title": "b-85",
        "displayTitle": "",
        "body": "",
        "_trackingId": 69
    },
    {
        "_id": "b-86",
        "_parentId": "a-50",
        "_type": "block",
        "_classes": "",
        "title": "b-86",
        "displayTitle": "",
        "body": "",
        "_trackingId": 70
    },
    {
        "_id": "b-87",
        "_parentId": "a-50",
        "_type": "block",
        "_classes": "",
        "title": "b-87",
        "displayTitle": "",
        "body": "",
        "_trackingId": 71
    },
    {
        "_id": "b-88",
        "_parentId": "a-50",
        "_type": "block",
        "_classes": "",
        "title": "b-88",
        "displayTitle": "",
        "body": "",
        "_trackingId": 72
    },
    {
        "_id": "b-89",
        "_parentId": "a-50",
        "_type": "block",
        "_classes": "",
        "title": "b-89",
        "displayTitle": "",
        "body": "",
        "_trackingId": 73
    },
    {
        "_id": "b-90",
        "_parentId": "a-55",
        "_type": "block",
        "_classes": "",
        "title": "b-90",
        "displayTitle": "",
        "body": "",
        "_trackingId": 74
    },
    {
        "_id": "b-91",
        "_parentId": "a-55",
        "_type": "block",
        "_classes": "",
        "title": "b-91",
        "displayTitle": "",
        "body": "",
        "_trackingId": 75
    },
    {
        "_id": "b-92",
        "_parentId": "a-55",
        "_type": "block",
        "_classes": "",
        "title": "b-92",
        "displayTitle": "",
        "body": "",
        "_trackingId": 76
    },
    {
        "_id": "b-93",
        "_parentId": "a-55",
        "_type": "block",
        "_classes": "",
        "title": "b-93",
        "displayTitle": "",
        "body": "",
        "_trackingId": 77
    },
    {
        "_id": "b-94",
        "_parentId": "a-55",
        "_type": "block",
        "_classes": "",
        "title": "b-94",
        "displayTitle": "",
        "body": "",
        "_trackingId": 78
    },
    {
        "_id": "b-95",
        "_parentId": "a-55",
        "_type": "block",
        "_classes": "",
        "title": "b-95",
        "displayTitle": "",
        "body": "",
        "_trackingId": 79
    },
    {
        "_id": "b-96",
        "_parentId": "a-55",
        "_type": "block",
        "_classes": "",
        "title": "b-95",
        "displayTitle": "",
        "body": "",
        "_trackingId": 80
    },
    {
        "_id": "b-98",
        "_parentId": "a-55",
        "_type": "block",
        "_classes": "",
        "title": "b-98",
        "displayTitle": "",
        "body": "",
        "_trackingId": 81
    },
    {
        "_id": "b-101",
        "_parentId": "a-55",
        "_type": "block",
        "_classes": "",
        "title": "b-101",
        "displayTitle": "",
        "body": "",
        "_trackingId": 82
    },
    {
        "_id": "b-102",
        "_parentId": "a-60",
        "_type": "block",
        "_classes": "",
        "title": "b-102",
        "displayTitle": "",
        "body": "",
        "_trackingId": 83
    },
    {
        "_id": "b-103",
        "_parentId": "a-60",
        "_type": "block",
        "_classes": "",
        "title": "b-103",
        "displayTitle": "",
        "body": "",
        "_trackingId": 84
    },
    {
        "_id": "b-104",
        "_parentId": "a-60",
        "_type": "block",
        "_classes": "",
        "title": "b-104",
        "displayTitle": "",
        "body": "",
        "_trackingId": 85
    },
    {
        "_id": "b-105",
        "_parentId": "a-60",
        "_type": "block",
        "_classes": "",
        "title": "b-105",
        "displayTitle": "",
        "body": "",
        "_trackingId": 86
    },
    {
        "_id": "b-106",
        "_parentId": "a-60",
        "_type": "block",
        "_classes": "",
        "title": "b-106",
        "displayTitle": "",
        "body": "",
        "_trackingId": 87
    },
    {
        "_id": "b-107",
        "_parentId": "a-65",
        "_type": "block",
        "_classes": "",
        "title": "b-107",
        "displayTitle": "",
        "body": "",
        "_trackingId": 88
    },
    {
        "_id": "b-108",
        "_parentId": "a-65",
        "_type": "block",
        "_classes": "",
        "title": "b-108",
        "displayTitle": "",
        "body": "",
        "_trackingId": 89
    },
    {
        "_id": "b-109",
        "_parentId": "a-65",
        "_type": "block",
        "_classes": "",
        "title": "b-109",
        "displayTitle": "",
        "body": "",
        "_trackingId": 90
    },
    {
        "_id": "b-110",
        "_parentId": "a-65",
        "_type": "block",
        "_classes": "",
        "title": "b-110",
        "displayTitle": "",
        "body": "",
        "_trackingId": 91
    }
]